<?xml version="1.0" encoding="UTF-8" standalone="no"?>
<!-- Uploaded to: SVG Repo, www.svgrepo.com, Generator: SVG Repo Mixer Tools -->

<svg
   width="502.37003"
   height="502.37003"
   viewBox="0 0 15.071101 15.071101"
   fill="none"
   version="1.1"
   id="svg58"
   sodipodi:docname="web.svg"
   inkscape:export-filename="web.svg"
   inkscape:export-xdpi="96"
   inkscape:export-ydpi="96"
   xmlns:inkscape="http://www.inkscape.org/namespaces/inkscape"
   xmlns:sodipodi="http://sodipodi.sourceforge.net/DTD/sodipodi-0.dtd"
   xmlns="http://www.w3.org/2000/svg"
   xmlns:svg="http://www.w3.org/2000/svg">
  <defs
     id="defs62" />
  <sodipodi:namedview
     id="namedview60"
     pagecolor="#ffffff"
     bordercolor="#000000"
     borderopacity="0.25"
     inkscape:showpageshadow="2"
     inkscape:pageopacity="0.0"
     inkscape:pagecheckerboard="0"
     inkscape:deskcolor="#d1d1d1"
     showgrid="false" />
  <path
     fill-rule="evenodd"
     clip-rule="evenodd"
     d="m 1.1715753,1.1715753 c 1.5621,-1.56209998 4.09476,-1.56209998 5.65685,0 l 2.8284,2.82843 c 1.5620997,1.56212 1.5620997,4.09472 0,5.65682 -0.3905,0.3905997 -1.0237,0.3905997 -1.4142,0 -0.3905,-0.3905 -0.3905,-1.0237 0,-1.4142 0.7811,-0.781 0.7811,-2.0474 0,-2.82841 l -2.82841,-2.82843 c -0.78105,-0.78104 -2.04738,-0.78104 -2.82843,0 -0.78104,0.78105 -0.78104,2.04738 0,2.82843 l 0.70711,0.70711 c 0.39053,0.3905 0.39052,1.0237 0,1.4142 -0.39052,0.3905 -1.02369,0.3905 -1.41421,0 l -0.70711,-0.7071 c -1.56209998,-1.56209 -1.56209998,-4.09475 0,-5.65685 z m 5.65685,4.24265 c 0.3905,0.3905 0.3905,1.0237 0,1.4142 -0.781,0.7811 -0.781,2.0474 0,2.8284 l 2.8284,2.8284997 c 0.7810997,0.781 2.0473997,0.781 2.8284997,0 0.781,-0.7811 0.781,-2.0474 0,-2.8284997 l -0.7071,-0.7071 c -0.3906,-0.3905 -0.3906,-1.0237 0,-1.4142 0.3905,-0.3905 1.0236,-0.3905 1.4142,0 l 0.7071,0.7071 c 1.5621,1.5621 1.5621,4.0947997 0,5.6568997 -1.5621,1.5621 -4.0947997,1.5621 -5.6568997,0 l -2.8284,-2.8284 c -1.5621,-1.5620997 -1.5621,-4.0947997 0,-5.6568997 0.3905,-0.39053 1.0237,-0.39053 1.4142,0 z"
     fill="#fe8019"
     id="path56" />
</svg>
